…
# Get speakers from transcripts about media
get_transcript_speakers(topic = "media")
#> # A tibble: 52 × 2
#>    speaker_std   transcripts
#>    <chr>         <list>     
#>  1 ALBERTO KOURI <dbl [1]>  
#>  2 ALEX KOURI    <dbl [4]>  
#>  3 ARANCIBIA     <dbl [1]>  
#>  4 ARCE          <dbl [2]>  
#>  5 BELLO VAZQUEZ <dbl [1]>  
#>  6 BOROBIO       <dbl [3]>  
#>  7 BRINGAS       <dbl [1]>  
#>  8 CALMELL       <dbl [4]>  
#>  9 CAMPOS        <dbl [1]>  
#> 10 CHIRINOS      <dbl [1]>  
#> # ℹ 42 more rows
…
