…
  speaker_std      transcripts
  <chr>            <list>     
1 ALVA             <dbl [1]>  
2 BOROBIO          <dbl [1]>  
3 BURNET           <dbl [1]>  
4 GARCIA           <dbl [1]>  
5 HERNANDEZ CANELO <dbl [1]>  
6 LEWIS            <dbl [1]>  
7 MONTESINOS       <dbl [1]>  
8 SERPA            <dbl [1]>  
9 VALLE RIESTRA    <dbl [1]>  
> 
> # Get speakers from transcripts about media
> get_transcript_speakers(topic = "media")
# A tibble: 52 x 2
   speaker_std   transcripts
   <chr>         <list>     
 1 ALBERTO KOURI <dbl [1]>  
 2 ALEX KOURI    <dbl [4]>  
 3 ARANCIBIA     <dbl [1]>  
 4 ARCE          <dbl [2]>  
 5 BELLO VAZQUEZ <dbl [1]>  
 6 BOROBIO       <dbl [3]>  
 7 BRINGAS       <dbl [1]>  
 8 CALMELL       <dbl [4]>  
 9 CAMPOS        <dbl [1]>  
10 CHIRINOS      <dbl [1]>  
# i 42 more rows
…
