Using BribeR • BribeR
…
meta <- read_transcript_meta_data()
head(meta)
#> # A tibble: 6 × 5
#>       n date      speakers   n_words topics   
#>   <dbl> <chr>     <list>       <int> <list>   
#> 1   104 7/1/2000  <chr [2]>     9289 <chr [2]>
#> 2    19 4/21/1998 <chr [11]>    5693 <chr [2]>
#> 3    11 2/10/1998 <chr [3]>     9420 <chr [1]>
#> 4    12 2/10/1998 <chr [2]>     1283 <chr [1]>
#> 5     5 1/8/1998  <chr [5]>     9391 <chr [2]>
#> 6     7 1/15/1998 <chr [6]>    11146 <chr [3]>

# Get metadata for transcript 5
read_transcript_meta_data(5)
#> # A tibble: 101 × 5
#>        n date      speakers   n_words topics   
#>    <dbl> <chr>     <list>       <int> <list>   
#>  1   104 7/1/2000  <chr [2]>     9289 <chr [2]>
#>  2    19 4/21/1998 <chr [11]>    5693 <chr [2]>
#>  3    11 2/10/1998 <chr [3]>     9420 <chr [1]>
#>  4    12 2/10/1998 <chr [2]>     1283 <chr [1]>
#>  5     5 1/8/1998  <chr [5]>     9391 <chr [2]>
#>  6     7 1/15/1998 <chr [6]>    11146 <chr [3]>
#>  7     9 1/23/1988 <chr [3]>    16843 <chr [2]>
#>  8    10 1/28/1998 <chr [8]>    15704 <chr [1]>
#>  9    17 4/14/1998 <chr [2]>    11547 <chr [1]>
#> 10    22 5/5/1998  <chr [2]>     2219 <chr [1]>
#> # ℹ 91 more rows
…
